%YAML 1.1
%TAG !u! tag:unity3d.com,2011:
--- !u!1045 &1
EditorBuildSettings:
  m_ObjectHideFlags: 0
  serializedVersion: 2
  m_Scenes:
  - enabled: 1
    path: Assets/01.Scenes/00.MainUI.unity
    guid: 9abb55b96652f16438192f604be183a6
  - enabled: 1
    path: Assets/01.Scenes/01.InGame.unity
    guid: 2cda990e2423bbf4892e6590ba056729
  - enabled: 1
    path: Assets/01.Scenes/02.Shop.unity
    guid: c7723ef42ab0dbd4e978daffc8586a0f
  - enabled: 1
    path: Assets/01.Scenes/03.Options.unity
    guid: e90d736e25b50a14fa3ec6d6bc35f1e2
  m_configObjects: {}
